<?xml version="1.0" encoding="utf-8"?>
<!-- Generator: Adobe Illustrator 19.1.0, SVG Export Plug-In . SVG Version: 6.00 Build 0)  -->
<!DOCTYPE svg PUBLIC "-//W3C//DTD SVG 1.1//EN" "http://www.w3.org/Graphics/SVG/1.1/DTD/svg11.dtd">
<svg version="1.1" id="Layer_1" xmlns="http://www.w3.org/2000/svg" xmlns:xlink="http://www.w3.org/1999/xlink" x="0px" y="0px"
	 viewBox="0 0 24 24" enable-background="new 0 0 24 24" xml:space="preserve">
<g enable-background="new    ">
	<g>
		<defs>
			<rect id="SVGID_1_" y="1" width="24" height="23"/>
		</defs>
		<clipPath id="SVGID_2_">
			<use xlink:href="#SVGID_1_"  overflow="visible"/>
		</clipPath>
		<g clip-path="url(#SVGID_2_)">
			<defs>
				<rect id="SVGID_3_" y="1" width="24" height="23"/>
			</defs>
			<clipPath id="SVGID_4_">
				<use xlink:href="#SVGID_3_"  overflow="visible"/>
			</clipPath>
			
				<circle clip-path="url(#SVGID_4_)" fill="none" stroke="#6D5CAE" stroke-linecap="round" stroke-miterlimit="10" cx="12" cy="12.5" r="7.464"/>
			
				<line clip-path="url(#SVGID_4_)" fill="none" stroke="#6D5CAE" stroke-linecap="round" stroke-miterlimit="10" x1="21.429" y1="12.5" x2="23" y2="12.5"/>
			
				<line clip-path="url(#SVGID_4_)" fill="none" stroke="#6D5CAE" stroke-linecap="round" stroke-miterlimit="10" x1="12" y1="3.071" x2="12" y2="1.5"/>
			
				<line clip-path="url(#SVGID_4_)" fill="none" stroke="#6D5CAE" stroke-linecap="round" stroke-miterlimit="10" x1="2.571" y1="12.5" x2="1" y2="12.5"/>
			
				<line clip-path="url(#SVGID_4_)" fill="none" stroke="#6D5CAE" stroke-linecap="round" stroke-miterlimit="10" x1="12" y1="21.929" x2="12" y2="23.5"/>
			
				<line clip-path="url(#SVGID_4_)" fill="none" stroke="#6D5CAE" stroke-linecap="round" stroke-miterlimit="10" x1="18.667" y1="5.833" x2="19.778" y2="4.722"/>
			
				<line clip-path="url(#SVGID_4_)" fill="none" stroke="#6D5CAE" stroke-linecap="round" stroke-miterlimit="10" x1="5.333" y1="5.833" x2="4.222" y2="4.722"/>
			
				<line clip-path="url(#SVGID_4_)" fill="none" stroke="#6D5CAE" stroke-linecap="round" stroke-miterlimit="10" x1="5.333" y1="19.167" x2="4.222" y2="20.278"/>
			
				<line clip-path="url(#SVGID_4_)" fill="none" stroke="#6D5CAE" stroke-linecap="round" stroke-miterlimit="10" x1="18.667" y1="19.167" x2="19.778" y2="20.278"/>
		</g>
	</g>
</g>
</svg>
